%YAML 1.1
%TAG !u! tag:unity3d.com,2011:
--- !u!74 &7400000
AnimationClip:
  m_ObjectHideFlags: 0
  m_CorrespondingSourceObject: {fileID: 0}
  m_PrefabInstance: {fileID: 0}
  m_PrefabAsset: {fileID: 0}
  m_Name: JumpHorizontal
  serializedVersion: 6
  m_Legacy: 0
  m_Compressed: 0
  m_UseHighQualityCurve: 1
  m_RotationCurves: []
  m_CompressedRotationCurves: []
  m_EulerCurves: []
  m_PositionCurves: []
  m_ScaleCurves: []
  m_FloatCurves: []
  m_PPtrCurves:
  - curve:
    - time: 0
      value: {fileID: -3680180221676759586, guid: fe46c093223f2fe43b9115fb1659036e,
        type: 3}
    - time: 0.016666668
      value: {fileID: -2966466950289740229, guid: fe46c093223f2fe43b9115fb1659036e,
        type: 3}
    - time: 0.033333335
      value: {fileID: 191484991168938609, guid: fe46c093223f2fe43b9115fb1659036e,
        type: 3}
    - time: 0.05
      value: {fileID: 5077475628673676129, guid: fe46c093223f2fe43b9115fb1659036e,
        type: 3}
    - time: 0.06666667
      value: {fileID: -3948613221237300309, guid: fe46c093223f2fe43b9115fb1659036e,
        type: 3}
    - time: 0.083333336
      value: {fileID: 0}
    attribute: m_Sprite
    path: Sprite
    classID: 212
    script: {fileID: 0}
  m_SampleRate: 60
  m_WrapMode: 0
  m_Bounds:
    m_Center: {x: 0, y: 0, z: 0}
    m_Extent: {x: 0, y: 0, z: 0}
  m_ClipBindingConstant:
    genericBindings:
    - serializedVersion: 2
      path: 850496168
      attribute: 0
      script: {fileID: 0}
      typeID: 212
      customType: 23
      isPPtrCurve: 1
    pptrCurveMapping:
    - {fileID: -3680180221676759586, guid: fe46c093223f2fe43b9115fb1659036e, type: 3}
    - {fileID: -2966466950289740229, guid: fe46c093223f2fe43b9115fb1659036e, type: 3}
    - {fileID: 191484991168938609, guid: fe46c093223f2fe43b9115fb1659036e, type: 3}
    - {fileID: 5077475628673676129, guid: fe46c093223f2fe43b9115fb1659036e, type: 3}
    - {fileID: -3948613221237300309, guid: fe46c093223f2fe43b9115fb1659036e, type: 3}
    - {fileID: 0}
  m_AnimationClipSettings:
    serializedVersion: 2
    m_AdditiveReferencePoseClip: {fileID: 0}
    m_AdditiveReferencePoseTime: 0
    m_StartTime: 0
    m_StopTime: 0.1
    m_OrientationOffsetY: 0
    m_Level: 0
    m_CycleOffset: 0
    m_HasAdditiveReferencePose: 0
    m_LoopTime: 0
    m_LoopBlend: 0
    m_LoopBlendOrientation: 0
    m_LoopBlendPositionY: 0
    m_LoopBlendPositionXZ: 0
    m_KeepOriginalOrientation: 0
    m_KeepOriginalPositionY: 1
    m_KeepOriginalPositionXZ: 0
    m_HeightFromFeet: 0
    m_Mirror: 0
  m_EditorCurves: []
  m_EulerEditorCurves: []
  m_HasGenericRootTransform: 0
  m_HasMotionFloatCurves: 0
  m_Events:
  - time: 0.016666668
    functionName: SplashSound
    data: 
    objectReferenceParameter: {fileID: 0}
    floatParameter: 0
    intParameter: 0
    messageOptions: 0
  - time: 0.06666667
    functionName: AfterJump
    data: 
    objectReferenceParameter: {fileID: 0}
    floatParameter: 0
    intParameter: 0
    messageOptions: 0
